simulation/modelsim/dump.vcd
$date
	Fri Oct 27 12:36:04 2023
$end
$version
	ModelSim Version 10.5b
$end
$timescale
	1ps
$end

$scope module uart_tb $end
$var parameter 32 ! CLK_PERIOD $end
$var parameter 32 " CLKS_PER_BIT $end
$var reg 1 # clk $end
$var reg 1 $ rst $end
$var reg 1 % tx $end
$var reg 8 & data_to_send [7:0] $end
$var reg 1 ' tx_valid $end
$var reg 1 ( tx_ready $end
$var reg 1 ) rx $end
$var reg 8 * data_received [7:0] $end
$var reg 1 + rx_valid $end
$var reg 1 , rx_ready $end

$scope module DUT_tx $end
$var parameter 32 - CLKS_PER_BIT $end
$var parameter 32 . NCLK $end
$var wire 1 / clk $end
$var wire 1 0 rst $end
$var reg 1 1 tx $end
$var wire 1 2 data_to_send [7] $end
$var wire 1 3 data_to_send [6] $end
$var wire 1 4 data_to_send [5] $end
$var wire 1 5 data_to_send [4] $end
$var wire 1 6 data_to_send [3] $end
$var wire 1 7 data_to_send [2] $end
$var wire 1 8 data_to_send [1] $end
$var wire 1 9 data_to_send [0] $end
$var wire 1 : valid $end
$var reg 1 ; ready $end
$var reg 8 < data_to_send_temp [7:0] $end
$var integer 32 = count $end
$var reg 3 > bit_index [2:0] $end
$var reg 2 ? state [1:0] $end
$var reg 2 @ next_state [1:0] $end

$scope begin fsm_next_state $end
$upscope $end

$scope begin fsm_ff $end
$upscope $end

$scope begin fsm_output $end
$upscope $end
$upscope $end

$scope module DUT_rx $end
$var parameter 32 A CLKS_PER_BIT $end
$var parameter 32 B NCLK $end
$var wire 1 C clk $end
$var wire 1 D rst $end
$var wire 1 E rx $end
$var reg 8 F data_received [7:0] $end
$var wire 1 G valid $end
$var wire 1 H ready $end
$var reg 1 I rx_q0 $end
$var reg 1 J rx_q1 $end
$var integer 32 K count $end
$var reg 3 L bit_index [2:0] $end
$var reg 3 M state [2:0] $end
$var reg 3 N next_state [2:0] $end

$scope begin fsm_next_state $end
$upscope $end

$scope begin fsm_ff $end
$upscope $end
$upscope $end
$upscope $end

$scope begin std $end
$upscope $end
$enddefinitions $end
#0
$dumpvars
0#
1$
1%
b1010101 &
1'
0(
1)
bx *
x+
1,
11
0;
bx <
bx >
bx ?
b0 @
bx F
xI
xJ
bx L
bx M
b0 N
b10100 !
b1010001011000 "
b1010001011000 .
b1010001011000 B
b1010001011000 -
b1010001011000 A
bx =
bx K
1:
0/
10
19
08
17
06
15
04
13
02
xG
1H
0C
1D
1E
$end
#10000
1#
1C
1/
b0 ?
b0 <
b0 >
b0 =
1I
b0 M
b0 K
0G
0+
1;
1(
b1 @
#20000
0#
0C
0/
#30000
1#
1C
1/
1J
#40000
0#
0C
0/
#50000
1#
1C
1/
#60000
0$
0#
0D
00
0C
0/
#70000
1#
1C
1/
b1 ?
b1 =
b1010101 <
b0 =
b0 L
0;
01
0%
0(
0)
0E
#80000
0#
0C
0/
#90000
1#
1C
1/
b1 =
0I
b1 N
#100000
0'
0#
0:
0C
0/
#110000
1#
1C
1/
b10 =
0J
b1 M
#120000
0#
0C
0/
#130000
1#
1C
1/
b11 =
b1 K
#140000
0#
0C
0/
#150000
1#
1C
1/
b100 =
b10 K
#160000
0#
0C
0/
#170000
1#
1C
1/
b101 =
b11 K
#180000
0#
0C
0/
#190000
1#
1C
1/
b110 =
b100 K
#200000
0#
0C
0/
#210000
1#
1C
1/
b111 =
b101 K
#220000
0#
0C
0/
#230000
1#
1C
1/
b1000 =
b110 K
#240000
0#
0C
0/
#250000
1#
1C
1/
b1001 =
b111 K
#260000
0#
0C
0/
#270000
1#
1C
1/
b1010 =
b1000 K
#280000
0#
0C
0/
#290000
1#
1C
1/
b1011 =
b1001 K
#300000
0#
0C
0/
#310000
1#
1C
1/
b1100 =
b1010 K
#320000
0#
0C
0/
#330000
1#
1C
1/
b1101 =
b1011 K
#340000
0#
0C
0/
#350000
1#
1C
1/
b1110 =
b1100 K
#360000
0#
0C
0/
#370000
1#
1C
1/
b1111 =
b1101 K
#380000
0#
0C
0/
#390000
1#
1C
1/
b10000 =
b1110 K
#400000
0#
0C
0/
#410000
1#
1C
1/
b10001 =
b1111 K
#420000
0#
0C
0/
#430000
1#
1C
1/
b10010 =
b10000 K
#440000
0#
0C
0/
#450000
1#
1C
1/
b10011 =
b10001 K
#460000
0#
0C
0/
#470000
1#
1C
1/
b10100 =
b10010 K
#480000
0#
0C
0/
#490000
1#
1C
1/
b10101 =
b10011 K
#500000
0#
0C
0/
#510000
1#
1C
1/
b10110 =
b10100 K
#520000
0#
0C
0/
#530000
1#
1C
1/
b10111 =
b10101 K
#540000
0#
0C
0/
#550000
1#
1C
1/
b11000 =
b10110 K
#560000
0#
0C
0/
#570000
1#
1C
1/
b11001 =
b10111 K
#580000
0#
0C
0/
#590000
1#
1C
1/
b11010 =
b11000 K
#600000
0#
0C
0/
#610000
1#
1C
1/
b11011 =
b11001 K
#620000
0#
0C
0/
#630000
1#
1C
1/
b11100 =
b11010 K
#640000
0#
0C
0/
#650000
1#
1C
1/
b11101 =
b11011 K
#660000
0#
0C
0/
#670000
1#
1C
1/
b11110 =
b11100 K
#680000
0#
0C
0/
#690000
1#
1C
1/
b11111 =
b11101 K
#700000
0#
0C
0/
#710000
1#
1C
1/
b100000 =
b11110 K
#720000
0#
0C
0/
#730000
1#
1C
1/
b100001 =
b11111 K
#740000
0#
0C
0/
#750000
1#
1C
1/
b100010 =
b100000 K
#760000
0#
0C
0/
#770000
1#
1C
1/
b100011 =
b100001 K
#780000
0#
0C
0/
#790000
1#
1C
1/
b100100 =
b100010 K
#800000
0#
0C
0/
#810000
1#
1C
1/
b100101 =
b100011 K
#820000
0#
0C
0/
#830000
1#
1C
1/
b100110 =
b100100 K
#840000
0#
0C
0/
#850000
1#
1C
1/
b100111 =
b100101 K
#860000
0#
0C
0/
#870000
1#
1C
1/
b101000 =
b100110 K
#880000
0#
0C
0/
#890000
1#
1C
1/
b101001 =
b100111 K
#900000
0#
0C
0/
#910000
1#
1C
1/
b101010 =
b101000 K
#920000
0#
0C
0/
#930000
1#
1C
1/
b101011 =
b101001 K
#940000
0#
0C
0/
#950000
1#
1C
1/
b101100 =
b101010 K
#960000
0#
0C
0/
#970000
1#
1C
1/
b101101 =
b101011 K
#980000
0#
0C
0/
#990000
1#
1C
1/
b101110 =
b101100 K
#1000000
0#
0C
0/
#1010000
1#
1C
1/
b101111 =
b101101 K
#1020000
0#
0C
0/
#1030000
1#
1C
1/
b110000 =
b101110 K
#1040000
0#
0C
0/
#1050000
1#
1C
1/
b110001 =
b101111 K
#1060000
0#
0C
0/
#1070000
1#
1C
1/
b110010 =
b110000 K
#1080000
0#
0C
0/
#1090000
1#
1C
1/
b110011 =
b110001 K
#1100000
0#
0C
0/
#1110000
1#
1C
1/
b110100 =
b110010 K
#1120000
0#
0C
0/
#1130000
1#
1C
1/
b110101 =
b110011 K
#1140000
0#
0C
0/
#1150000
1#
1C
1/
b110110 =
b110100 K
#1160000
0#
0C
0/
#1170000
1#
1C
1/
b110111 =
b110101 K
#1180000
0#
0C
0/
#1190000
1#
1C
1/
b111000 =
b110110 K
#1200000
0#
0C
0/
#1210000
1#
1C
1/
b111001 =
b110111 K
#1220000
0#
0C
0/
#1230000
1#
1C
1/
b111010 =
b111000 K
#1240000
0#
0C
0/
#1250000
1#
1C
1/
b111011 =
b111001 K
#1260000
0#
0C
0/
#1270000
1#
1C
1/
b111100 =
b111010 K
#1280000
0#
0C
0/
#1290000
1#
1C
1/
b111101 =
b111011 K
#1300000
0#
0C
0/
#1310000
1#
1C
1/
b111110 =
b111100 K
#1320000
0#
0C
0/
#1330000
1#
1C
1/
b111111 =
b111101 K
#1340000
0#
0C
0/
#1350000
1#
1C
1/
b1000000 =
b111110 K
#1360000
0#
0C
0/
#1370000
1#
1C
1/
b1000001 =
b111111 K
#1380000
0#
0C
0/
#1390000
1#
1C
1/
b1000010 =
b1000000 K
#1400000
0#
0C
0/
#1410000
1#
1C
1/
b1000011 =
b1000001 K
#1420000
0#
0C
0/
#1430000
1#
1C
1/
b1000100 =
b1000010 K
#1440000
0#
0C
0/
#1450000
1#
1C
1/
b1000101 =
b1000011 K
#1460000
0#
0C
0/
#1470000
1#
1C
1/
b1000110 =
b1000100 K
#1480000
0#
0C
0/
#1490000
1#
1C
1/
b1000111 =
b1000101 K
#1500000
0#
0C
0/
#1510000
1#
1C
1/
b1001000 =
b1000110 K
#1520000
0#
0C
0/
#1530000
1#
1C
1/
b1001001 =
b1000111 K
#1540000
0#
0C
0/
#1550000
1#
1C
1/
b1001010 =
b1001000 K
#1560000
0#
0C
0/
#1570000
1#
1C
1/
b1001011 =
b1001001 K
#1580000
0#
0C
0/
#1590000
1#
1C
1/
b1001100 =
b1001010 K
#1600000
0#
0C
0/
#1610000
1#
1C
1/
b1001101 =
b1001011 K
#1620000
0#
0C
0/
#1630000
1#
1C
1/
b1001110 =
b1001100 K
#1640000
0#
0C
0/
#1650000
1#
1C
1/
b1001111 =
b1001101 K
#1660000
0#
0C
0/
#1670000
1#
1C
1/
b1010000 =
b1001110 K
#1680000
0#
0C
0/
#1690000
1#
1C
1/
b1010001 =
b1001111 K
#1700000
0#
0C
0/
#1710000
1#
1C
1/
b1010010 =
b1010000 K
#1720000
0#
0C
0/
#1730000
1#
1C
1/
b1010011 =
b1010001 K
#1740000
0#
0C
0/
#1750000
1#
1C
1/
b1010100 =
b1010010 K
#1760000
0#
0C
0/
#1770000
1#
1C
1/
b1010101 =
b1010011 K
#1780000
0#
0C
0/
#1790000
1#
1C
1/
b1010110 =
b1010100 K
#1800000
0#
0C
0/
#1810000
1#
1C
1/
b1010111 =
b1010101 K
#1820000
0#
0C
0/
#1830000
1#
1C
1/
b1011000 =
b1010110 K
#1840000
0#
0C
0/
#1850000
1#
1C
1/
b1011001 =
b1010111 K
#1860000
0#
0C
0/
#1870000
1#
1C
1/
b1011010 =
b1011000 K
#1880000
0#
0C
0/
#1890000
1#
1C
1/
b1011011 =
b1011001 K
#1900000
0#
0C
0/
#1910000
1#
1C
1/
b1011100 =
b1011010 K
#1920000
0#
0C
0/
#1930000
1#
1C
1/
b1011101 =
b1011011 K
#1940000
0#
0C
0/
#1950000
1#
1C
1/
b1011110 =
b1011100 K
#1960000
0#
0C
0/
#1970000
1#
1C
1/
b1011111 =
b1011101 K
#1980000
0#
0C
0/
#1990000
1#
1C
1/
b1100000 =
b1011110 K
#2000000
0#
0C
0/
#2010000
1#
1C
1/
b1100001 =
b1011111 K
#2020000
0#
0C
0/
#2030000
1#
1C
1/
b1100010 =
b1100000 K
#2040000
0#
0C
0/
#2050000
1#
1C
1/
b1100011 =
b1100001 K
#2060000
0#
0C
0/
#2070000
1#
1C
1/
b1100100 =
b1100010 K
#2080000
0#
0C
0/
#2090000
1#
1C
1/
b1100101 =
b1100011 K
#2100000
0#
0C
0/
#2110000
1#
1C
1/
b1100110 =
b1100100 K
#2120000
0#
0C
0/
#2130000
1#
1C
1/
b1100111 =
b1100101 K
#2140000
0#
0C
0/
#2150000
1#
1C
1/
b1101000 =
b1100110 K
#2160000
0#
0C
0/
#2170000
1#
1C
1/
b1101001 =
b1100111 K
#2180000
0#
0C
0/
#2190000
1#
1C
1/
b1101010 =
b1101000 K
#2200000
0#
0C
0/
#2210000
1#
1C
1/
b1101011 =
b1101001 K
#2220000
0#
0C
0/
#2230000
1#
1C
1/
b1101100 =
b1101010 K
#2240000
0#
0C
0/
#2250000
1#
1C
1/
b1101101 =
b1101011 K
#2260000
0#
0C
0/
#2270000
1#
1C
1/
b1101110 =
b1101100 K
#2280000
0#
0C
0/
#2290000
1#
1C
1/
b1101111 =
b1101101 K
#2300000
0#
0C
0/
#2310000
1#
1C
1/
b1110000 =
b1101110 K
#2320000
0#
0C
0/
#2330000
1#
1C
1/
b1110001 =
b1101111 K
#2340000
0#
0C
0/
#2350000
1#
1C
1/
b1110010 =
b1110000 K
#2360000
0#
0C
0/
#2370000
1#
1C
1/
b1110011 =
b1110001 K
#2380000
0#
0C
0/
#2390000
1#
1C
1/
b1110100 =
b1110010 K
#2400000
0#
0C
0/
#2410000
1#
1C
1/
b1110101 =
b1110011 K
#2420000
0#
0C
0/
#2430000
1#
1C
1/
b1110110 =
b1110100 K
#2440000
0#
0C
0/
#2450000
1#
1C
1/
b1110111 =
b1110101 K
#2460000
0#
0C
0/
#2470000
1#
1C
1/
b1111000 =
b1110110 K
#2480000
0#
0C
0/
#2490000
1#
1C
1/
b1111001 =
b1110111 K
#2500000
0#
0C
0/
#2510000
1#
1C
1/
b1111010 =
b1111000 K
#2520000
0#
0C
0/
#2530000
1#
1C
1/
b1111011 =
b1111001 K
#2540000
0#
0C
0/
#2550000
1#
1C
1/
b1111100 =
b1111010 K
#2560000
0#
0C
0/
#2570000
1#
1C
1/
b1111101 =
b1111011 K
#2580000
0#
0C
0/
#2590000
1#
1C
1/
b1111110 =
b1111100 K
#2600000
0#
0C
0/
#2610000
1#
1C
1/
b1111111 =
b1111101 K
#2620000
0#
0C
0/
#2630000
1#
1C
1/
b10000000 =
b1111110 K
#2640000
0#
0C
0/
#2650000
1#
1C
1/
b10000001 =
b1111111 K
#2660000
0#
0C
0/
#2670000
1#
1C
1/
b10000010 =
b10000000 K
#2680000
0#
0C
0/
#2690000
1#
1C
1/
b10000011 =
b10000001 K
#2700000
0#
0C
0/
#2710000
1#
1C
1/
b10000100 =
b10000010 K
#2720000
0#
0C
0/
#2730000
1#
1C
1/
b10000101 =
b10000011 K
#2740000
0#
0C
0/
#2750000
1#
1C
1/
b10000110 =
b10000100 K
#2760000
0#
0C
0/
#2770000
1#
1C
1/
b10000111 =
b10000101 K
#2780000
0#
0C
0/
#2790000
1#
1C
1/
b10001000 =
b10000110 K
#2800000
0#
0C
0/
#2810000
1#
1C
1/
b10001001 =
b10000111 K
#2820000
0#
0C
0/
#2830000
1#
1C
1/
b10001010 =
b10001000 K
#2840000
0#
0C
0/
#2850000
1#
1C
1/
b10001011 =
b10001001 K
#2860000
0#
0C
0/
#2870000
1#
1C
1/
b10001100 =
b10001010 K
#2880000
0#
0C
0/
#2890000
1#
1C
1/
b10001101 =
b10001011 K
#2900000
0#
0C
0/
#2910000
1#
1C
1/
b10001110 =
b10001100 K
#2920000
0#
0C
0/
#2930000
1#
1C
1/
b10001111 =
b10001101 K
#2940000
0#
0C
0/
#2950000
1#
1C
1/
b10010000 =
b10001110 K
#2960000
0#
0C
0/
#2970000
1#
1C
1/
b10010001 =
b10001111 K
#2980000
0#
0C
0/
#2990000
1#
1C
1/
b10010010 =
b10010000 K
#3000000
0#
0C
0/
#3010000
1#
1C
1/
b10010011 =
b10010001 K
#3020000
0#
0C
0/
#3030000
1#
1C
1/
b10010100 =
b10010010 K
#3040000
0#
0C
0/
#3050000
1#
1C
1/
b10010101 =
b10010011 K
#3060000
0#
0C
0/
#3070000
1#
1C
1/
b10010110 =
b10010100 K
#3080000
0#
0C
0/
#3090000
1#
1C
1/
b10010111 =
b10010101 K
#3100000
0#
0C
0/
#3110000
1#
1C
1/
b10011000 =
b10010110 K
#3120000
0#
0C
0/
#3130000
1#
1C
1/
b10011001 =
b10010111 K
#3140000
0#
0C
0/
#3150000
1#
1C
1/
b10011010 =
b10011000 K
#3160000
0#
0C
0/
#3170000
1#
1C
1/
b10011011 =
b10011001 K
#3180000
0#
0C
0/
#3190000
1#
1C
1/
b10011100 =
b10011010 K
#3200000
0#
0C
0/
#3210000
1#
1C
1/
b10011101 =
b10011011 K
#3220000
0#
0C
0/
#3230000
1#
1C
1/
b10011110 =
b10011100 K
#3240000
0#
0C
0/
#3250000
1#
1C
1/
b10011111 =
b10011101 K
#3260000
0#
0C
0/
#3270000
1#
1C
1/
b10100000 =
b10011110 K
#3280000
0#
0C
0/
#3290000
1#
1C
1/
b10100001 =
b10011111 K
#3300000
0#
0C
0/
#3310000
1#
1C
1/
b10100010 =
b10100000 K
#3320000
0#
0C
0/
#3330000
1#
1C
1/
b10100011 =
b10100001 K
#3340000
0#
0C
0/
#3350000
1#
1C
1/
b10100100 =
b10100010 K
#3360000
0#
0C
0/
#3370000
1#
1C
1/
b10100101 =
b10100011 K
#3380000
0#
0C
0/
#3390000
1#
1C
1/
b10100110 =
b10100100 K
#3400000
0#
0C
0/
#3410000
1#
1C
1/
b10100111 =
b10100101 K
#3420000
0#
0C
0/
#3430000
1#
1C
1/
b10101000 =
b10100110 K
#3440000
0#
0C
0/
#3450000
1#
1C
1/
b10101001 =
b10100111 K
#3460000
0#
0C
0/
#3470000
1#
1C
1/
b10101010 =
b10101000 K
#3480000
0#
0C
0/
#3490000
1#
1C
1/
b10101011 =
b10101001 K
#3500000
0#
0C
0/
#3510000
1#
1C
1/
b10101100 =
b10101010 K
#3520000
0#
0C
0/
#3530000
1#
1C
1/
b10101101 =
b10101011 K
#3540000
0#
0C
0/
#3550000
1#
1C
1/
b10101110 =
b10101100 K
#3560000
0#
0C
0/
#3570000
1#
1C
1/
b10101111 =
b10101101 K
#3580000
0#
0C
0/
#3590000
1#
1C
1/
b10110000 =
b10101110 K
#3600000
0#
0C
0/
#3610000
1#
1C
1/
b10110001 =
b10101111 K
#3620000
0#
0C
0/
#3630000
1#
1C
1/
b10110010 =
b10110000 K
#3640000
0#
0C
0/
#3650000
1#
1C
1/
b10110011 =
b10110001 K
#3660000
0#
0C
0/
#3670000
1#
1C
1/
b10110100 =
b10110010 K
#3680000
0#
0C
0/
#3690000
1#
1C
1/
b10110101 =
b10110011 K
#3700000
0#
0C
0/
#3710000
1#
1C
1/
b10110110 =
b10110100 K
#3720000
0#
0C
0/
#3730000
1#
1C
1/
b10110111 =
b10110101 K
#3740000
0#
0C
0/
#3750000
1#
1C
1/
b10111000 =
b10110110 K
#3760000
0#
0C
0/
#3770000
1#
1C
1/
b10111001 =
b10110111 K
#3780000
0#
0C
0/
#3790000
1#
1C
1/
b10111010 =
b10111000 K
#3800000
0#
0C
0/
#3810000
1#
1C
1/
b10111011 =
b10111001 K
#3820000
0#
0C
0/
#3830000
1#
1C
1/
b10111100 =
b10111010 K
#3840000
0#
0C
0/
#3850000
1#
1C
1/
b10111101 =
b10111011 K
#3860000
0#
0C
0/
#3870000
1#
1C
1/
b10111110 =
b10111100 K
#3880000
0#
0C
0/
#3890000
1#
1C
1/
b10111111 =
b10111101 K
#3900000
0#
0C
0/
#3910000
1#
1C
1/
b11000000 =
b10111110 K
#3920000
0#
0C
0/
#3930000
1#
1C
1/
b11000001 =
b10111111 K
#3940000
0#
0C
0/
#3950000
1#
1C
1/
b11000010 =
b11000000 K
#3960000
0#
0C
0/
#3970000
1#
1C
1/
b11000011 =
b11000001 K
#3980000
0#
0C
0/
#3990000
1#
1C
1/
b11000100 =
b11000010 K
#4000000
0#
0C
0/
#4010000
1#
1C
1/
b11000101 =
b11000011 K
#4020000
0#
0C
0/
#4030000
1#
1C
1/
b11000110 =
b11000100 K
#4040000
0#
0C
0/
#4050000
1#
1C
1/
b11000111 =
b11000101 K
#4060000
0#
0C
0/
#4070000
1#
1C
1/
b11001000 =
b11000110 K
#4080000
0#
0C
0/
#4090000
1#
1C
1/
b11001001 =
b11000111 K
#4100000
0#
0C
0/
#4110000
1#
1C
1/
b11001010 =
b11001000 K
#4120000
0#
0C
0/
#4130000
1#
1C
1/
b11001011 =
b11001001 K
#4140000
0#
0C
0/
#4150000
1#
1C
1/
b11001100 =
b11001010 K
#4160000
0#
0C
0/
#4170000
1#
1C
1/
b11001101 =
b11001011 K
#4180000
0#
0C
0/
#4190000
1#
1C
1/
b11001110 =
b11001100 K
#4200000
0#
0C
0/
#4210000
1#
1C
1/
b11001111 =
b11001101 K
#4220000
0#
0C
0/
#4230000
1#
1C
1/
b11010000 =
b11001110 K
#4240000
0#
0C
0/
#4250000
1#
1C
1/
b11010001 =
b11001111 K
#4260000
0#
0C
0/
#4270000
1#
1C
1/
b11010010 =
b11010000 K
#4280000
0#
0C
0/
#4290000
1#
1C
1/
b11010011 =
b11010001 K
#4300000
0#
0C
0/
#4310000
1#
1C
1/
b11010100 =
b11010010 K
#4320000
0#
0C
0/
#4330000
1#
1C
1/
b11010101 =
b11010011 K
#4340000
0#
0C
0/
#4350000
1#
1C
1/
b11010110 =
b11010100 K
#4360000
0#
0C
0/
#4370000
1#
1C
1/
b11010111 =
b11010101 K
#4380000
0#
0C
0/
#4390000
1#
1C
1/
b11011000 =
b11010110 K
#4400000
0#
0C
0/
#4410000
1#
1C
1/
b11011001 =
b11010111 K
#4420000
0#
0C
0/
#4430000
1#
1C
1/
b11011010 =
b11011000 K
#4440000
0#
0C
0/
#4450000
1#
1C
1/
b11011011 =
b11011001 K
#4460000
0#
0C
0/
#4470000
1#
1C
1/
b11011100 =
b11011010 K
#4480000
0#
0C
0/
#4490000
1#
1C
1/
b11011101 =
b11011011 K
#4500000
0#
0C
0/
#4510000
1#
1C
1/
b11011110 =
b11011100 K
#4520000
0#
0C
0/
#4530000
1#
1C
1/
b11011111 =
b11011101 K
#4540000
0#
0C
0/
#4550000
1#
1C
1/
b11100000 =
b11011110 K
#4560000
0#
0C
0/
#4570000
1#
1C
1/
b11100001 =
b11011111 K
#4580000
0#
0C
0/
#4590000
1#
1C
1/
b11100010 =
b11100000 K
#4600000
0#
0C
0/
#4610000
1#
1C
1/
b11100011 =
b11100001 K
#4620000
0#
0C
0/
#4630000
1#
1C
1/
b11100100 =
b11100010 K
#4640000
0#
0C
0/
#4650000
1#
1C
1/
b11100101 =
b11100011 K
#4660000
0#
0C
0/
#4670000
1#
1C
1/
b11100110 =
b11100100 K
#4680000
0#
0C
0/
#4690000
1#
1C
1/
b11100111 =
b11100101 K
#4700000
0#
0C
0/
#4710000
1#
1C
1/
b11101000 =
b11100110 K
#4720000
0#
0C
0/
#4730000
1#
1C
1/
b11101001 =
b11100111 K
#4740000
0#
0C
0/
#4750000
1#
1C
1/
b11101010 =
b11101000 K
#4760000
0#
0C
0/
#4770000
1#
1C
1/
b11101011 =
b11101001 K
#4780000
0#
0C
0/
#4790000
1#
1C
1/
b11101100 =
b11101010 K
#4800000
0#
0C
0/
#4810000
1#
1C
1/
b11101101 =
b11101011 K
#4820000
0#
0C
0/
#4830000
1#
1C
1/
b11101110 =
b11101100 K
#4840000
0#
0C
0/
#4850000
1#
1C
1/
b11101111 =
b11101101 K
#4860000
0#
0C
0/
#4870000
1#
1C
1/
b11110000 =
b11101110 K
#4880000
0#
0C
0/
#4890000
1#
1C
1/
b11110001 =
b11101111 K
#4900000
0#
0C
0/
#4910000
1#
1C
1/
b11110010 =
b11110000 K
#4920000
0#
0C
0/
#4930000
1#
1C
1/
b11110011 =
b11110001 K
#4940000
0#
0C
0/
#4950000
1#
1C
1/
b11110100 =
b11110010 K
#4960000
0#
0C
0/
#4970000
1#
1C
1/
b11110101 =
b11110011 K
#4980000
0#
0C
0/
#4990000
1#
1C
1/
b11110110 =
b11110100 K
#5000000
0#
0C
0/
#5010000
1#
1C
1/
b11110111 =
b11110101 K
#5020000
0#
0C
0/
#5030000
1#
1C
1/
b11111000 =
b11110110 K
#5040000
0#
0C
0/
#5050000
1#
1C
1/
b11111001 =
b11110111 K
#5060000
0#
0C
0/
#5070000
1#
1C
1/
b11111010 =
b11111000 K
#5080000
0#
0C
0/
#5090000
1#
1C
1/
b11111011 =
b11111001 K
#5100000
0#
0C
0/
#5110000
1#
1C
1/
b11111100 =
b11111010 K
#5120000
0#
0C
0/
#5130000
1#
1C
1/
b11111101 =
b11111011 K
#5140000
0#
0C
0/
#5150000
1#
1C
1/
b11111110 =
b11111100 K
#5160000
0#
0C
0/
#5170000
1#
1C
1/
b11111111 =
b11111101 K
#5180000
0#
0C
0/
#5190000
1#
1C
1/
b100000000 =
b11111110 K
#5200000
0#
0C
0/
#5210000
1#
1C
1/
b100000001 =
b11111111 K
#5220000
0#
0C
0/
#5230000
1#
1C
1/
b100000010 =
b100000000 K
#5240000
0#
0C
0/
#5250000
1#
1C
1/
b100000011 =
b100000001 K
#5260000
0#
0C
0/
#5270000
1#
1C
1/
b100000100 =
b100000010 K
#5280000
0#
0C
0/
#5290000
1#
1C
1/
b100000101 =
b100000011 K
#5300000
0#
0C
0/
#5310000
1#
1C
1/
b100000110 =
b100000100 K
#5320000
0#
0C
0/
#5330000
1#
1C
1/
b100000111 =
b100000101 K
#5340000
0#
0C
0/
#5350000
1#
1C
1/
b100001000 =
b100000110 K
#5360000
0#
0C
0/
#5370000
1#
1C
1/
b100001001 =
b100000111 K
#5380000
0#
0C
0/
#5390000
1#
1C
1/
b100001010 =
b100001000 K
#5400000
0#
0C
0/
#5410000
1#
1C
1/
b100001011 =
b100001001 K
#5420000
0#
0C
0/
#5430000
1#
1C
1/
b100001100 =
b100001010 K
#5440000
0#
0C
0/
#5450000
1#
1C
1/
b100001101 =
b100001011 K
#5460000
0#
0C
0/
#5470000
1#
1C
1/
b100001110 =
b100001100 K
#5480000
0#
0C
0/
#5490000
1#
1C
1/
b100001111 =
b100001101 K
#5500000
0#
0C
0/
#5510000
1#
1C
1/
b100010000 =
b100001110 K
#5520000
0#
0C
0/
#5530000
1#
1C
1/
b100010001 =
b100001111 K
#5540000
0#
0C
0/
#5550000
1#
1C
1/
b100010010 =
b100010000 K
#5560000
0#
0C
0/
#5570000
1#
1C
1/
b100010011 =
b100010001 K
#5580000
0#
0C
0/
#5590000
1#
1C
1/
b100010100 =
b100010010 K
#5600000
0#
0C
0/
#5610000
1#
1C
1/
b100010101 =
b100010011 K
#5620000
0#
0C
0/
#5630000
1#
1C
1/
b100010110 =
b100010100 K
#5640000
0#
0C
0/
#5650000
1#
1C
1/
b100010111 =
b100010101 K
#5660000
0#
0C
0/
#5670000
1#
1C
1/
b100011000 =
b100010110 K
#5680000
0#
0C
0/
#5690000
1#
1C
1/
b100011001 =
b100010111 K
#5700000
0#
0C
0/
#5710000
1#
1C
1/
b100011010 =
b100011000 K
#5720000
0#
0C
0/
#5730000
1#
1C
1/
b100011011 =
b100011001 K
#5740000
0#
0C
0/
#5750000
1#
1C
1/
b100011100 =
b100011010 K
#5760000
0#
0C
0/
#5770000
1#
1C
1/
b100011101 =
b100011011 K
#5780000
0#
0C
0/
#5790000
1#
1C
1/
b100011110 =
b100011100 K
#5800000
0#
0C
0/
#5810000
1#
1C
1/
b100011111 =
b100011101 K
#5820000
0#
0C
0/
#5830000
1#
1C
1/
b100100000 =
b100011110 K
#5840000
0#
0C
0/
#5850000
1#
1C
1/
b100100001 =
b100011111 K
#5860000
0#
0C
0/
#5870000
1#
1C
1/
b100100010 =
b100100000 K
#5880000
0#
0C
0/
#5890000
1#
1C
1/
b100100011 =
b100100001 K
#5900000
0#
0C
0/
#5910000
1#
1C
1/
b100100100 =
b100100010 K
#5920000
0#
0C
0/
#5930000
1#
1C
1/
b100100101 =
b100100011 K
#5940000
0#
0C
0/
#5950000
1#
1C
1/
b100100110 =
b100100100 K
#5960000
0#
0C
0/
#5970000
1#
1C
1/
b100100111 =
b100100101 K
#5980000
0#
0C
0/
#5990000
1#
1C
1/
b100101000 =
b100100110 K
#6000000
0#
0C
0/
#6010000
1#
1C
1/
b100101001 =
b100100111 K
#6020000
0#
0C
0/
#6030000
1#
1C
1/
b100101010 =
b100101000 K
#6040000
0#
0C
0/
#6050000
1#
1C
1/
b100101011 =
b100101001 K
#6060000
0#
0C
0/
#6070000
1#
1C
1/
b100101100 =
b100101010 K
#6080000
0#
0C
0/
#6090000
1#
1C
1/
b100101101 =
b100101011 K
#6100000
0#
0C
0/
#6110000
1#
1C
1/
b100101110 =
b100101100 K
#6120000
0#
0C
0/
#6130000
1#
1C
1/
b100101111 =
b100101101 K
#6140000
0#
0C
0/
#6150000
1#
1C
1/
b100110000 =
b100101110 K
#6160000
0#
0C
0/
#6170000
1#
1C
1/
b100110001 =
b100101111 K
#6180000
0#
0C
0/
#6190000
1#
1C
1/
b100110010 =
b100110000 K
#6200000
0#
0C
0/
#6210000
1#
1C
1/
b100110011 =
b100110001 K
#6220000
0#
0C
0/
#6230000
1#
1C
1/
b100110100 =
b100110010 K
#6240000
0#
0C
0/
#6250000
1#
1C
1/
b100110101 =
b100110011 K
#6260000
0#
0C
0/
#6270000
1#
1C
1/
b100110110 =
b100110100 K
#6280000
0#
0C
0/
#6290000
1#
1C
1/
b100110111 =
b100110101 K
#6300000
0#
0C
0/
#6310000
1#
1C
1/
b100111000 =
b100110110 K
#6320000
0#
0C
0/
#6330000
1#
1C
1/
b100111001 =
b100110111 K
#6340000
0#
0C
0/
#6350000
1#
1C
1/
b100111010 =
b100111000 K
#6360000
0#
0C
0/
#6370000
1#
1C
1/
b100111011 =
b100111001 K
#6380000
0#
0C
0/
#6390000
1#
1C
1/
b100111100 =
b100111010 K
#6400000
0#
0C
0/
#6410000
1#
1C
1/
b100111101 =
b100111011 K
#6420000
0#
0C
0/
#6430000
1#
1C
1/
b100111110 =
b100111100 K
#6440000
0#
0C
0/
#6450000
1#
1C
1/
b100111111 =
b100111101 K
#6460000
0#
0C
0/
#6470000
1#
1C
1/
b101000000 =
b100111110 K
#6480000
0#
0C
0/
#6490000
1#
1C
1/
b101000001 =
b100111111 K
#6500000
0#
0C
0/
#6510000
1#
1C
1/
b101000010 =
b101000000 K
#6520000
0#
0C
0/
#6530000
1#
1C
1/
b101000011 =
b101000001 K
#6540000
0#
0C
0/
#6550000
1#
1C
1/
b101000100 =
b101000010 K
#6560000
0#
0C
0/
#6570000
1#
1C
1/
b101000101 =
b101000011 K
#6580000
0#
0C
0/
#6590000
1#
1C
1/
b101000110 =
b101000100 K
#6600000
0#
0C
0/
#6610000
1#
1C
1/
b101000111 =
b101000101 K
#6620000
0#
0C
0/
#6630000
1#
1C
1/
b101001000 =
b101000110 K
